Inference_simulations
…
Make data frames where we have small or larger samples of tea data for ONE experiment

# here's, we're calling our custom functino, and specifying different inputs than the defaults (which are inside the parenthese up above)
tea_data <- make_tea_data(n_total = 18, delta=1.5)

tea_data_highn <- make_tea_data(n_total = 48, delta=1.5)

tea_data_highn

# A tibble: 48 × 2
   condition  rating
   <chr>       <dbl>
 1 milk first      6
 2 milk first      4
 3 milk first      4
 4 milk first      5
 5 milk first      4
 6 milk first      4
 7 milk first      4
 8 milk first      3
 9 milk first      6
10 milk first      5
# ℹ 38 more rows
…
  tea_ratings <- filter(this_experiment, condition == "tea first")$rating
  milk_ratings <- filter(this_experiment, condition == "milk first")$rating
  
  output = t.test(tea_ratings, milk_ratings, paired = FALSE, var.equal = TRUE)
  
  this_exp_output = tibble(pvalue = output$p.value)
  all_results_high_n = bind_rows(all_results_high_n, this_exp_output)
    
}

How often did we fail to reject the null hypothesis? When was our p-value greater than p=.05? What does the distriobution of p-values look like?

all_results_high_n

# A tibble: 100 × 1
       pvalue
        <dbl>
 1 0.0000453 
 2 0.000757  
 3 0.0000104 
 4 0.000402  
 5 0.00517   
 6 0.00874   
 7 0.000583  
 8 0.00000569
 9 0.000248  
10 0.000549  
# ℹ 90 more rows
…
